…
```
## Parsed with column specification:
## cols(
##   min = col_double(),
##   X2 = col_character(),
##   `umol/L` = col_double(),
##   X4 = col_double()
## )
```

```
## # A tibble: 38 x 4
##     TIME MOL      DV    ID
##    <dbl> <chr> <dbl> <dbl>
##  1    20 Cp    2.90      1
##  2    30 Cp    3.80      1
##  3    40 Cp    4.35      1
##  4    60 Cp    5.08      1
##  5    65 Cp    5.11      1
##  6    80 Cp    3.22      1
##  7    95 Cp    2.11      1
##  8   120 Cp    0.950     1
##  9   150 Cp    0.453     1
## 10   180 Cp    0.200     1
## # ... with 28 more rows
```
…
